{
    "content" : [
        {
            "id":1,
            "title": "Movies",
            "description": "Hollywood",
            "name": "Fight Club",
            "genre": "Drama",
            "seen": false
        },
        {
            "id":2,
            "title": "Movies",
            "description": "Hollywood",
            "name": "The Lord of the Rings",
            "genre": "Fiction",
            "seen": false
        },
        {
            "id":3,
            "title": "Movies",
            "description": "Hollywood",
            "name": "War Games",
            "genre": "Sci-Fi",
            "seen": false
        },
        {
            "id":4,
            "title": "Movies",
            "description": "Hollywood",
            "name": "Pulp Fiction",
            "genre": "Action",
            "seen": false
        },
        {
            "id":5,
            "title": "Movies",
            "description": "Hollywood",
            "name": "Interstellar",
            "genre": "Action",
            "seen": false
        }    
    ]
}